{
    "name": "Xavier",
    "last_name": "Ros",
    "second_last_name": "Muñoz",
    "age": 28,
    "birthdate": "14/05/1992",
    "appearance": {
        "face": {
            "skin_color": "caucasian",
            "face_size": 0,
            "head_width": -1,
            "head_length": 2,
            "beard_type": 13,
            "eye_color": "hazel",
            "eye_height": 1,
            "nose_type": 7,
            "accessory": null
        },
        "hairstyle": {
            "style": 5,
            "hair_color": "0x211f19",
            "accessory": null
        },
        "size": {
            "weight": 68,
            "height": 168
        }
    },
    "personality": {
        "humour": ["absurd", "black", "normal", "trolling"],
        "hobbies": ["handball", "scuba diving", "videogames", "beer", "card games", "anime"],
        "favorite_videogame": "The Legend of Zelda: Majora's Mask",
        "favorite_film": "Invictus",
        "favorite_food": "rice curry"
    },
    "proficiencies": {
        "education": {
            "degree": "Electronic Telecommunications Engineering",
            "postgraduate": "System Administration (GNU/Linux), DevOps and Cloud Computing",
            "master": null,
            "doctorate": null,
            "universities": ["UAB", "UOC"]
        },
        "soft_skills": ["responsible", "open-minded", "ambitious", "friendly", "teamwork"],
        "technical": ["python", "flask", "jenkins", "ansible", "terraform", "docker", "aws", "kubernetes", "vagrant"],
        "languages": {
            "catalan": "native",
            "spanish": "native",
            "english": "fluent",
            "japanese": "noob"
        },
        "licenses": {
            "driving": "B",
            "scuba_diving": "PADI Advanced Water Diver"
        }
    }
}